<?xml version="1.0" encoding="UTF-8"?>
<svg width="296px" height="312px" viewBox="0 0 296 312" version="1.1" xmlns="http://www.w3.org/2000/svg" xmlns:xlink="http://www.w3.org/1999/xlink">
    <!-- Generator: Sketch 50.2 (55047) - http://www.bohemiancoding.com/sketch -->
    <title>Artboard</title>
    <desc>Created with Sketch.</desc>
    <defs></defs>
    <g id="Artboard" stroke="none" stroke-width="1" fill="none" fill-rule="evenodd">
        <g id="Group" transform="translate(-2.000000, -2.000000)" fill="#00CC99" fill-rule="nonzero">
            <circle id="Oval" cx="33.77" cy="282.54" r="30.86"></circle>
            <circle id="Oval" cx="64.81" cy="118.22" r="28.01"></circle>
            <circle id="Oval" cx="17.69" cy="17.66" r="15.09"></circle>
            <circle id="Oval" cx="142.01" cy="149.1" r="8.8"></circle>
            <circle id="Oval" cx="227.66" cy="185.5" r="8.8"></circle>
            <circle id="Oval" cx="83.55" cy="55.7" r="8.8"></circle>
            <circle id="Oval" cx="11.66" cy="125.2" r="8.8"></circle>
            <circle id="Oval" cx="12.29" cy="190.89" r="8.8"></circle>
            <circle id="Oval" transform="translate(158.352020, 145.328888) rotate(-9.340000) translate(-158.352020, -145.328888) " cx="158.35202" cy="145.328888" r="5.03"></circle>
            <circle id="Oval" transform="translate(241.269602, 195.970355) rotate(-9.340000) translate(-241.269602, -195.970355) " cx="241.269602" cy="195.970355" r="5.03"></circle>
            <circle id="Oval" transform="translate(136.414866, 174.976510) rotate(-9.340000) translate(-136.414866, -174.976510) " cx="136.414866" cy="174.97651" r="5.03"></circle>
            <circle id="Oval" transform="translate(125.004152, 145.331351) rotate(-9.340000) translate(-125.004152, -145.331351) " cx="125.004152" cy="145.331351" r="5.03"></circle>
            <circle id="Oval" transform="translate(229.435179, 200.825847) rotate(-9.340000) translate(-229.435179, -200.825847) " cx="229.435179" cy="200.825847" r="5.03"></circle>
            <circle id="Oval" transform="translate(130.744234, 57.438137) rotate(-15.830000) translate(-130.744234, -57.438137) " cx="130.744234" cy="57.4381368" r="5.03"></circle>
            <circle id="Oval" transform="translate(87.315120, 259.518595) rotate(-15.830000) translate(-87.315120, -259.518595) " cx="87.3151203" cy="259.518595" r="5.03"></circle>
            <circle id="Oval" transform="translate(92.343448, 291.512901) rotate(-15.830000) translate(-92.343448, -291.512901) " cx="92.3434479" cy="291.512901" r="5.03"></circle>
            <circle id="Oval" transform="translate(97.188531, 155.394937) rotate(-15.830000) translate(-97.188531, -155.394937) " cx="97.1885307" cy="155.394937" r="5.03"></circle>
            <circle id="Oval" transform="translate(38.432779, 145.335249) rotate(-15.830000) translate(-38.432779, -145.335249) " cx="38.4327791" cy="145.335249" r="5.03"></circle>
            <circle id="Oval" transform="translate(26.529800, 134.142400) rotate(-15.708638) translate(-26.529800, -134.142400) " cx="26.5298" cy="134.1424" r="5.01614843"></circle>
            <circle id="Oval" transform="translate(26.116006, 241.621450) rotate(-15.830000) translate(-26.116006, -241.621450) " cx="26.116006" cy="241.62145" r="5.03"></circle>
            <circle id="Oval" transform="translate(62.861900, 307.918200) rotate(-15.708638) translate(-62.861900, -307.918200) " cx="62.8619" cy="307.9182" r="5.01614843"></circle>
            <circle id="Oval" transform="translate(105.928051, 291.515766) rotate(-15.830000) translate(-105.928051, -291.515766) " cx="105.928051" cy="291.515766" r="5.03"></circle>
            <circle id="Oval" transform="translate(64.160605, 231.977992) rotate(-15.830000) translate(-64.160605, -231.977992) " cx="64.1606052" cy="231.977992" r="5.03"></circle>
            <circle id="Oval" transform="translate(155.001000, 157.620000) rotate(-15.708638) translate(-155.001000, -157.620000) " cx="155.001" cy="157.62" r="5.01614843"></circle>
            <circle id="Oval" transform="translate(111.883045, 7.882013) rotate(-15.830000) translate(-111.883045, -7.882013) " cx="111.883045" cy="7.88201262" r="5.03"></circle>
            <circle id="Oval" transform="translate(122.734200, 199.687100) rotate(-15.708638) translate(-122.734200, -199.687100) " cx="122.7342" cy="199.6871" r="5.01614843"></circle>
            <circle id="Oval" transform="translate(91.072900, 274.733200) rotate(-15.708638) translate(-91.072900, -274.733200) " cx="91.0729" cy="274.7332" r="5.01614843"></circle>
            <circle id="Oval" transform="translate(7.970109, 253.845933) rotate(-15.830000) translate(-7.970109, -253.845933) " cx="7.97010878" cy="253.845933" r="5.03"></circle>
            <circle id="Oval" transform="translate(207.890400, 67.662200) rotate(-15.708638) translate(-207.890400, -67.662200) " cx="207.8904" cy="67.6622" r="5.01614843"></circle>
            <circle id="Oval" transform="translate(286.646960, 68.752179) rotate(-15.830000) translate(-286.646960, -68.752179) " cx="286.64696" cy="68.7521787" r="5.03"></circle>
            <circle id="Oval" transform="translate(205.226700, 32.890600) rotate(-15.708638) translate(-205.226700, -32.890600) " cx="205.2267" cy="32.8906" r="5.01614843"></circle>
            <circle id="Oval" transform="translate(105.541300, 76.460900) rotate(-15.708638) translate(-105.541300, -76.460900) " cx="105.5413" cy="76.4609" r="5.01614843"></circle>
            <circle id="Oval" transform="translate(213.294400, 98.335700) rotate(-15.708638) translate(-213.294400, -98.335700) " cx="213.2944" cy="98.3357" r="5.01614843"></circle>
            <circle id="Oval" transform="translate(62.594600, 59.997300) rotate(-15.708638) translate(-62.594600, -59.997300) " cx="62.5946" cy="59.9973" r="5.01614843"></circle>
            <circle id="Oval" transform="translate(201.119130, 9.760575) rotate(-15.830000) translate(-201.119130, -9.760575) " cx="201.11913" cy="9.76057471" r="5.03"></circle>
            <circle id="Oval" transform="translate(227.038313, 64.388186) rotate(-15.830000) translate(-227.038313, -64.388186) " cx="227.038313" cy="64.3881862" r="5.03"></circle>
            <circle id="Oval" transform="translate(255.702600, 110.643800) rotate(-15.708638) translate(-255.702600, -110.643800) " cx="255.7026" cy="110.6438" r="5.01614843"></circle>
            <circle id="Oval" transform="translate(258.681280, 122.250248) rotate(-15.830000) translate(-258.681280, -122.250248) " cx="258.68128" cy="122.250248" r="5.03"></circle>
            <circle id="Oval" transform="translate(214.988100, 167.781800) rotate(-15.708638) translate(-214.988100, -167.781800) " cx="214.9881" cy="167.7818" r="5.01614843"></circle>
            <circle id="Oval" transform="translate(278.279600, 80.434300) rotate(-15.708638) translate(-278.279600, -80.434300) " cx="278.2796" cy="80.4343" r="5.01614843"></circle>
            <circle id="Oval" transform="translate(274.531000, 103.313000) rotate(-15.708638) translate(-274.531000, -103.313000) " cx="274.531" cy="103.313" r="5.01614843"></circle>
            <circle id="Oval" transform="translate(292.863840, 101.570773) rotate(-15.830000) translate(-292.863840, -101.570773) " cx="292.86384" cy="101.570773" r="5.03"></circle>
            <circle id="Oval" transform="translate(282.772088, 91.664182) rotate(-26.810000) translate(-282.772088, -91.664182) " cx="282.772088" cy="91.664182" r="5.03"></circle>
            <circle id="Oval" transform="translate(134.610700, 8.266600) rotate(-15.708638) translate(-134.610700, -8.266600) " cx="134.6107" cy="8.2666" r="5.01614843"></circle>
            <circle id="Oval" transform="translate(75.923915, 84.890745) rotate(-15.830000) translate(-75.923915, -84.890745) " cx="75.9239154" cy="84.8907449" r="5.03"></circle>
            <circle id="Oval" transform="translate(105.941983, 136.533337) rotate(-15.830000) translate(-105.941983, -136.533337) " cx="105.941983" cy="136.533337" r="5.03"></circle>
            <circle id="Oval" transform="translate(58.346870, 247.416745) rotate(-72.420000) translate(-58.346870, -247.416745) " cx="58.3468698" cy="247.416745" r="7.55"></circle>
            <circle id="Oval" transform="translate(82.293840, 305.869840) rotate(-72.420000) translate(-82.293840, -305.869840) " cx="82.29384" cy="305.86984" r="7.55"></circle>
            <circle id="Oval" transform="translate(180.136634, 165.091108) rotate(-72.420000) translate(-180.136634, -165.091108) " cx="180.136634" cy="165.091108" r="10.61"></circle>
            <circle id="Oval" transform="translate(231.364521, 134.316576) rotate(-72.420000) translate(-231.364521, -134.316576) " cx="231.364521" cy="134.316576" r="7.55"></circle>
            <circle id="Oval" transform="translate(248.925325, 134.016551) rotate(-72.420000) translate(-248.925325, -134.016551) " cx="248.925325" cy="134.016551" r="7.55"></circle>
            <circle id="Oval" transform="translate(79.281521, 157.912399) rotate(-72.420000) translate(-79.281521, -157.912399) " cx="79.2815211" cy="157.912399" r="7.55"></circle>
            <circle id="Oval" transform="translate(213.706670, 83.075869) rotate(-72.420000) translate(-213.706670, -83.075869) " cx="213.70667" cy="83.075869" r="7.55"></circle>
            <circle id="Oval" transform="translate(197.971798, 103.000351) rotate(-72.420000) translate(-197.971798, -103.000351) " cx="197.971798" cy="103.000351" r="7.55"></circle>
            <circle id="Oval" transform="translate(64.188954, 45.107381) rotate(-72.420000) translate(-64.188954, -45.107381) " cx="64.1889537" cy="45.107381" r="7.55"></circle>
            <circle id="Oval" transform="translate(58.639228, 216.536869) rotate(-72.420000) translate(-58.639228, -216.536869) " cx="58.6392281" cy="216.536869" r="7.55"></circle>
            <circle id="Oval" transform="translate(74.744740, 275.006360) rotate(-72.420000) translate(-74.744740, -275.006360) " cx="74.74474" cy="275.00636" r="7.55"></circle>
            <circle id="Oval" transform="translate(137.496530, 71.117226) rotate(-72.420000) translate(-137.496530, -71.117226) " cx="137.49653" cy="71.1172259" r="7.55"></circle>
            <circle id="Oval" transform="translate(58.853175, 74.711302) rotate(-72.420000) translate(-58.853175, -74.711302) " cx="58.853175" cy="74.7113022" r="7.55"></circle>
            <circle id="Oval" transform="translate(23.084940, 67.160792) rotate(-72.420000) translate(-23.084940, -67.160792) " cx="23.0849403" cy="67.1607916" r="7.55"></circle>
            <circle id="Oval" transform="translate(232.463630, 45.499829) rotate(-51.060000) translate(-232.463630, -45.499829) " cx="232.46363" cy="45.4998291" r="3.01"></circle>
            <circle id="Oval" transform="translate(135.222549, 46.894946) rotate(-51.060000) translate(-135.222549, -46.894946) " cx="135.222549" cy="46.8949461" r="3.01"></circle>
            <circle id="Oval" transform="translate(143.799894, 58.745467) rotate(-51.060000) translate(-143.799894, -58.745467) " cx="143.799894" cy="58.7454669" r="3.01"></circle>
            <circle id="Oval" transform="translate(107.540349, 103.619734) rotate(-51.060000) translate(-107.540349, -103.619734) " cx="107.540349" cy="103.619734" r="3.01"></circle>
            <circle id="Oval" transform="translate(239.446599, 144.887987) rotate(-51.060000) translate(-239.446599, -144.887987) " cx="239.446599" cy="144.887987" r="3.01"></circle>
            <circle id="Oval" transform="translate(210.973623, 111.413757) rotate(-51.060000) translate(-210.973623, -111.413757) " cx="210.973623" cy="111.413757" r="3.01"></circle>
            <circle id="Oval" transform="translate(200.783789, 50.120661) rotate(-51.060000) translate(-200.783789, -50.120661) " cx="200.783789" cy="50.1206613" r="3.01"></circle>
            <circle id="Oval" transform="translate(20.473188, 111.415526) rotate(-51.060000) translate(-20.473188, -111.415526) " cx="20.4731881" cy="111.415526" r="3.01"></circle>
            <circle id="Oval" transform="translate(108.253527, 113.760546) rotate(-51.060000) translate(-108.253527, -113.760546) " cx="108.253527" cy="113.760546" r="3.01"></circle>
            <circle id="Oval" transform="translate(30.995014, 81.975735) rotate(-51.060000) translate(-30.995014, -81.975735) " cx="30.9950143" cy="81.9757347" r="3.01"></circle>
            <circle id="Oval" transform="translate(106.688405, 64.503705) rotate(-51.060000) translate(-106.688405, -64.503705) " cx="106.688405" cy="64.5037048" r="3.01"></circle>
            <circle id="Oval" transform="translate(292.863282, 90.647490) rotate(-51.060000) translate(-292.863282, -90.647490) " cx="292.863282" cy="90.64749" r="3.01"></circle>
            <circle id="Oval" transform="translate(10.406272, 49.004060) rotate(-72.420000) translate(-10.406272, -49.004060) " cx="10.4062718" cy="49.0040604" r="7.55"></circle>
            <circle id="Oval" transform="translate(120.118500, 72.208000) rotate(-72.474432) translate(-120.118500, -72.208000) " cx="120.1185" cy="72.208" r="5.98742008"></circle>
            <circle id="Oval" transform="translate(93.318346, 81.984440) rotate(-72.420000) translate(-93.318346, -81.984440) " cx="93.3183459" cy="81.9844403" r="6.01"></circle>
            <circle id="Oval" transform="translate(96.020786, 101.535367) rotate(-72.420000) translate(-96.020786, -101.535367) " cx="96.0207859" cy="101.535367" r="6.01"></circle>
            <circle id="Oval" transform="translate(105.098483, 90.212931) rotate(-72.420000) translate(-105.098483, -90.212931) " cx="105.098483" cy="90.212931" r="6.01"></circle>
            <circle id="Oval" transform="translate(40.021700, 19.999100) rotate(-46.613539) translate(-40.021700, -19.999100) " cx="40.0217" cy="19.9991" r="4.35948625"></circle>
            <circle id="Oval" transform="translate(46.543300, 29.525900) rotate(-46.613539) translate(-46.543300, -29.525900) " cx="46.5433" cy="29.5259" r="4.35948625"></circle>
            <circle id="Oval" transform="translate(8.723200, 64.202600) rotate(-46.613539) translate(-8.723200, -64.202600) " cx="8.7232" cy="64.2026" r="4.35948625"></circle>
            <circle id="Oval" transform="translate(51.292616, 54.331125) rotate(-46.480000) translate(-51.292616, -54.331125) " cx="51.2926163" cy="54.331125" r="4.34"></circle>
            <circle id="Oval" transform="translate(36.109992, 61.342686) rotate(-46.480000) translate(-36.109992, -61.342686) " cx="36.1099922" cy="61.3426864" r="4.34"></circle>
            <circle id="Oval" transform="translate(35.263310, 101.510423) rotate(-46.480000) translate(-35.263310, -101.510423) " cx="35.2633099" cy="101.510423" r="4.34"></circle>
            <circle id="Oval" transform="translate(96.449400, 183.825200) rotate(-46.613539) translate(-96.449400, -183.825200) " cx="96.4494" cy="183.8252" r="4.35948625"></circle>
            <circle id="Oval" transform="translate(84.981200, 186.928600) rotate(-46.613539) translate(-84.981200, -186.928600) " cx="84.9812" cy="186.9286" r="4.35948625"></circle>
            <circle id="Oval" transform="translate(89.167183, 170.740760) rotate(-46.480000) translate(-89.167183, -170.740760) " cx="89.1671829" cy="170.74076" r="4.34"></circle>
            <circle id="Oval" transform="translate(7.363242, 107.765461) rotate(-46.480000) translate(-7.363242, -107.765461) " cx="7.36324181" cy="107.765461" r="4.34"></circle>
            <circle id="Oval" transform="translate(46.728500, 66.811500) rotate(-46.613539) translate(-46.728500, -66.811500) " cx="46.7285" cy="66.8115" r="4.35948625"></circle>
            <circle id="Oval" transform="translate(39.327700, 88.896100) rotate(-46.613539) translate(-39.327700, -88.896100) " cx="39.3277" cy="88.8961" r="4.35948625"></circle>
            <circle id="Oval" transform="translate(246.047900, 175.213700) rotate(-46.613539) translate(-246.047900, -175.213700) " cx="246.0479" cy="175.2137" r="4.35948625"></circle>
            <circle id="Oval" transform="translate(202.958057, 190.886317) rotate(-46.480000) translate(-202.958057, -190.886317) " cx="202.958057" cy="190.886317" r="4.34"></circle>
            <circle id="Oval" transform="translate(211.143141, 180.714329) rotate(-46.480000) translate(-211.143141, -180.714329) " cx="211.143141" cy="180.714329" r="4.34"></circle>
            <circle id="Oval" transform="translate(163.512000, 169.981000) rotate(-46.613539) translate(-163.512000, -169.981000) " cx="163.512" cy="169.981" r="4.35948625"></circle>
            <circle id="Oval" transform="translate(177.517400, 183.151200) rotate(-46.613539) translate(-177.517400, -183.151200) " cx="177.5174" cy="183.1512" r="4.35948625"></circle>
            <circle id="Oval" transform="translate(193.559697, 181.953310) rotate(-46.480000) translate(-193.559697, -181.953310) " cx="193.559697" cy="181.95331" r="4.34"></circle>
            <circle id="Oval" transform="translate(9.554000, 234.395000) rotate(-46.613539) translate(-9.554000, -234.395000) " cx="9.554" cy="234.395" r="4.35948625"></circle>
            <circle id="Oval" transform="translate(71.617700, 292.771100) rotate(-46.613539) translate(-71.617700, -292.771100) " cx="71.6177" cy="292.7711" r="4.35948625"></circle>
            <circle id="Oval" transform="translate(73.012200, 256.681600) rotate(-46.613539) translate(-73.012200, -256.681600) " cx="73.0122" cy="256.6816" r="4.35948625"></circle>
            <circle id="Oval" transform="translate(108.746400, 308.802200) rotate(-46.613539) translate(-108.746400, -308.802200) " cx="108.7464" cy="308.8022" r="4.35948625"></circle>
            <circle id="Oval" transform="translate(106.691974, 225.824926) rotate(-46.480000) translate(-106.691974, -225.824926) " cx="106.691974" cy="225.824926" r="4.34"></circle>
            <circle id="Oval" transform="translate(108.456000, 249.241000) rotate(-46.613539) translate(-108.456000, -249.241000) " cx="108.456" cy="249.241" r="4.35948625"></circle>
            <circle id="Oval" transform="translate(211.150462, 45.095347) rotate(-46.480000) translate(-211.150462, -45.095347) " cx="211.150462" cy="45.0953472" r="4.34"></circle>
            <circle id="Oval" transform="translate(106.691991, 123.377063) rotate(-46.480000) translate(-106.691991, -123.377063) " cx="106.691991" cy="123.377063" r="4.34"></circle>
            <circle id="Oval" transform="translate(217.725152, 57.407613) rotate(-46.480000) translate(-217.725152, -57.407613) " cx="217.725152" cy="57.4076127" r="4.34"></circle>
            <circle id="Oval" transform="translate(175.973027, 145.328566) rotate(-72.420000) translate(-175.973027, -145.328566) " cx="175.973027" cy="145.328566" r="7.55"></circle>
            <circle id="Oval" transform="translate(87.441505, 205.051066) rotate(-72.420000) translate(-87.441505, -205.051066) " cx="87.441505" cy="205.051066" r="7.55"></circle>
            <circle id="Oval" transform="translate(104.066548, 265.176224) rotate(-72.420000) translate(-104.066548, -265.176224) " cx="104.066548" cy="265.176224" r="7.55"></circle>
            <circle id="Oval" transform="translate(201.750168, 165.710180) rotate(-83.040000) translate(-201.750168, -165.710180) " cx="201.750168" cy="165.71018" r="7.55"></circle>
            <circle id="Oval" transform="translate(287.912901, 135.551626) rotate(-83.040000) translate(-287.912901, -135.551626) " cx="287.912901" cy="135.551626" r="7.55"></circle>
            <circle id="Oval" transform="translate(255.828766, 185.496851) rotate(-83.040000) translate(-255.828766, -185.496851) " cx="255.828766" cy="185.496851" r="7.55"></circle>
            <circle id="Oval" transform="translate(238.911830, 23.244944) rotate(-72.420000) translate(-238.911830, -23.244944) " cx="238.91183" cy="23.2449441" r="7.55"></circle>
            <circle id="Oval" transform="translate(223.814056, 37.962683) rotate(-72.420000) translate(-223.814056, -37.962683) " cx="223.814056" cy="37.9626829" r="7.55"></circle>
            <circle id="Oval" transform="translate(45.929008, 234.339525) rotate(-72.420000) translate(-45.929008, -234.339525) " cx="45.9290079" cy="234.339525" r="7.55"></circle>
            <circle id="Oval" transform="translate(132.383030, 21.012268) rotate(-56.920000) translate(-132.383030, -21.012268) " cx="132.38303" cy="21.0122679" r="5.73"></circle>
            <circle id="Oval" transform="translate(175.656062, 75.724250) rotate(-56.920000) translate(-175.656062, -75.724250) " cx="175.656062" cy="75.72425" r="5.73"></circle>
            <circle id="Oval" transform="translate(158.365215, 72.449826) rotate(-56.920000) translate(-158.365215, -72.449826) " cx="158.365215" cy="72.4498258" r="5.73"></circle>
            <circle id="Oval" transform="translate(41.540194, 8.515446) rotate(-72.420000) translate(-41.540194, -8.515446) " cx="41.5401941" cy="8.51544644" r="5.73"></circle>
            <circle id="Oval" transform="translate(194.295107, 78.548562) rotate(-76.530000) translate(-194.295107, -78.548562) " cx="194.295107" cy="78.548562" r="10.69"></circle>
            <circle id="Oval" transform="translate(233.813668, 159.779139) rotate(-76.530000) translate(-233.813668, -159.779139) " cx="233.813668" cy="159.779139" r="10.69"></circle>
            <circle id="Oval" transform="translate(35.256746, 45.091702) rotate(-76.530000) translate(-35.256746, -45.091702) " cx="35.2567459" cy="45.0917019" r="10.69"></circle>
            <circle id="Oval" transform="translate(218.726007, 19.195544) rotate(-76.530000) translate(-218.726007, -19.195544) " cx="218.726007" cy="19.1955439" r="10.69"></circle>
            <circle id="Oval" transform="translate(234.794946, 81.959277) rotate(-76.530000) translate(-234.794946, -81.959277) " cx="234.794946" cy="81.959277" r="10.69"></circle>
            <circle id="Oval" transform="translate(93.019293, 13.539096) rotate(-76.530000) translate(-93.019293, -13.539096) " cx="93.0192934" cy="13.5390962" r="10.69"></circle>
            <circle id="Oval" transform="translate(13.333541, 90.715001) rotate(-76.530000) translate(-13.333541, -90.715001) " cx="13.333541" cy="90.7150009" r="10.69"></circle>
            <circle id="Oval" cx="258.69" cy="54.33" r="22.45"></circle>
            <circle id="Oval" cx="233.82" cy="110.1" r="15.09"></circle>
            <circle id="Oval" cx="114.8" cy="169.15" r="15.09"></circle>
            <circle id="Oval" cx="17.95" cy="154.76" r="15.09"></circle>
            <circle id="Oval" cx="87.43" cy="236.58" r="15.09"></circle>
            <circle id="Oval" cx="23.08" cy="216.53" r="15.09"></circle>
            <circle id="Oval" cx="260.3" cy="91.69" r="11.93"></circle>
            <circle id="Oval" cx="187.29" cy="200.81" r="11.93"></circle>
            <circle id="Oval" cx="64.18" cy="17.24" r="15.09"></circle>
            <circle id="Oval" cx="202.38" cy="136.52" r="18.87"></circle>
            <circle id="Oval" cx="267.78" cy="157.9" r="18.87"></circle>
            <circle id="Oval" cx="150.81" cy="195.17" r="18.87"></circle>
            <circle id="Oval" cx="54" cy="182.09" r="24.63"></circle>
            <circle id="Oval" cx="111.89" cy="39.88" r="18.87"></circle>
            <circle id="Oval" cx="168.35" cy="33.5" r="30.86"></circle>
            <circle id="Oval" transform="translate(6.608500, 308.592000) rotate(-72.474432) translate(-6.608500, -308.592000) " cx="6.6085" cy="308.592" r="4.00489663"></circle>
            <circle id="Oval" transform="translate(122.408350, 16.572314) rotate(-51.060000) translate(-122.408350, -16.572314) " cx="122.40835" cy="16.5723139" r="3.01"></circle>
            <circle id="Oval" transform="translate(123.870138, 6.285675) rotate(-51.060000) translate(-123.870138, -6.285675) " cx="123.870138" cy="6.28567519" r="3.01"></circle>
            <circle id="Oval" transform="translate(97.035419, 59.898390) rotate(-51.060000) translate(-97.035419, -59.898390) " cx="97.0354188" cy="59.8983904" r="3.01"></circle>
            <circle id="Oval" transform="translate(92.354267, 69.531030) rotate(-51.060000) translate(-92.354267, -69.531030) " cx="92.3542675" cy="69.5310299" r="3.01"></circle>
            <circle id="Oval" transform="translate(76.751431, 41.765227) rotate(-51.060000) translate(-76.751431, -41.765227) " cx="76.7514307" cy="41.765227" r="3.01"></circle>
            <circle id="Oval" transform="translate(82.297165, 32.325313) rotate(-51.060000) translate(-82.297165, -32.325313) " cx="82.297165" cy="32.3253126" r="3.01"></circle>
            <circle id="Oval" transform="translate(47.452644, 89.248598) rotate(-51.060000) translate(-47.452644, -89.248598) " cx="47.452644" cy="89.248598" r="3.01"></circle>
            <circle id="Oval" transform="translate(194.308035, 61.352675) rotate(-51.060000) translate(-194.308035, -61.352675) " cx="194.308035" cy="61.3526748" r="3.01"></circle>
            <circle id="Oval" transform="translate(278.749304, 124.692949) rotate(-51.060000) translate(-278.749304, -124.692949) " cx="278.749304" cy="124.692949" r="3.01"></circle>
            <circle id="Oval" transform="translate(265.120062, 133.997311) rotate(-51.060000) translate(-265.120062, -133.997311) " cx="265.120062" cy="133.997311" r="3.01"></circle>
            <circle id="Oval" transform="translate(278.630619, 113.029396) rotate(-51.060000) translate(-278.630619, -113.029396) " cx="278.630619" cy="113.029396" r="3.01"></circle>
            <circle id="Oval" transform="translate(97.038372, 128.699618) rotate(-51.060000) translate(-97.038372, -128.699618) " cx="97.0383721" cy="128.699618" r="3.01"></circle>
            <circle id="Oval" transform="translate(76.832497, 71.113375) rotate(-51.060000) translate(-76.832497, -71.113375) " cx="76.8324969" cy="71.1133749" r="3.01"></circle>
            <circle id="Oval" transform="translate(89.176810, 141.277548) rotate(-51.060000) translate(-89.176810, -141.277548) " cx="89.1768097" cy="141.277548" r="3.01"></circle>
            <circle id="Oval" transform="translate(130.950985, 210.432079) rotate(-51.060000) translate(-130.950985, -210.432079) " cx="130.950985" cy="210.432079" r="3.01"></circle>
            <circle id="Oval" transform="translate(99.804519, 114.856573) rotate(-51.060000) translate(-99.804519, -114.856573) " cx="99.8045193" cy="114.856573" r="3.01"></circle>
            <circle id="Oval" transform="translate(291.047966, 78.548169) rotate(-51.060000) translate(-291.047966, -78.548169) " cx="291.047966" cy="78.5481689" r="3.01"></circle>
            <circle id="Oval" transform="translate(269.662627, 116.390306) rotate(-51.060000) translate(-269.662627, -116.390306) " cx="269.662627" cy="116.390306" r="3.01"></circle>
            <circle id="Oval" transform="translate(269.841931, 125.195219) rotate(-51.060000) translate(-269.841931, -125.195219) " cx="269.841931" cy="125.195219" r="3.01"></circle>
            <circle id="Oval" transform="translate(214.333015, 201.563674) rotate(-72.420000) translate(-214.333015, -201.563674) " cx="214.333015" cy="201.563674" r="7.55"></circle>
            <circle id="Oval" transform="translate(290.433474, 117.666453) rotate(-72.420000) translate(-290.433474, -117.666453) " cx="290.433474" cy="117.666453" r="7.55"></circle>
            <circle id="Oval" transform="translate(109.521144, 205.252695) rotate(-72.420000) translate(-109.521144, -205.252695) " cx="109.521144" cy="205.252695" r="7.55"></circle>
        </g>
    </g>
</svg>